Bayesi statistika kasutades R keelt
…
loo(m1, m2, m3)

Meie puhul on m1 ja m2 mudeli erinevus 25 ühikut ja selle erinevuse standardviga on 10 ühikut. 2 SE-d on umbkaudu 95% usaldusintervall, ja see ei kata antud juhul nulli. Seega järeldame, et m2, mis kasutab ennustamiseks lisamuutujat, on selgelt eelistatud mudel.

Samas mudelid m1 ja m3, mis on üsna erinevad, on võrdselt eelistatud. Selle ennustusjõu, mille me võidame lisaparameetrit mudeldades, kaotame omakorda liike ühte patta pannes (neid mitte osaliselt iseseisvana modelleerides).

Me ei süvene LOOIC statistilisse mõttesse, sest bayesi mudelite võrdlemine on kiiresti arenev ala, kus ühte parimat lahendust pole veel leitud. Meile piisab esialgu teadmisest, et enamus spetsialiste eelistab looic kriteeriumit senikaua, kuni midagi paremat välja mõeldakse.

18.1.6 5. vaatame mudelite kokkuvõtet

Lihtne väljatrükk mudeli m2 fititud koefitsientidest koos 95% usalduspiiridega

tidyMCMC(m2$fit, conf.int = TRUE, conf.method = "HPDinterval",
    rhat = TRUE)
#> # A tibble: 8 x 6
#>   term                        estimate std.error conf.low conf.high  rhat
#>   <chr>                          <dbl>     <dbl>    <dbl>     <dbl> <dbl>
#> 1 b_Intercept                    1.62     0.929    -0.888     3.17   1.01
#> 2 b_Petal.Length                 0.758    0.0675    0.622     0.884  1.00
#> 3 b_Sepal.Width                  0.441    0.0826    0.284     0.608  1.00
#> 4 sd_Species__Intercept          1.60     1.27      0.175     4.46   1.00
#> 5 sigma                          0.313    0.0186    0.277     0.349  1.00
#> 6 r_Species[setosa,Intercept]    0.765    0.909    -1.06      3.02   1.01
#> # ... with 2 more rows
…
18.5.2 zero inflated mudelid

Kasulikud siis, kui teil on Y-s rohkem nulle kui võiks arvata. Näiteks, kui proovida hinnata, mitu suitsu päevas tõmmatakse andmestikust, mis sisaldab mittesuitsetajaid.

selle mudeli spetsifitseerimiseks pole vaja teha muud, kui õelda brm() argument family = zero_inflated_poisson(), zero_inflated_beta(), _binomial(), _negbinomial().

zinb data: mitu kala turist püüab.

zinb <- read_csv("http://stats.idre.ucla.edu/stat/data/fish.csv")
zinb
#> # A tibble: 250 x 8
#>   nofish livebait camper persons child     xb     zg count
#>    <int>    <int>  <int>   <int> <int>  <dbl>  <dbl> <int>
#> 1      1        0      0       1     0 -0.896  3.05      0
#> 2      0        1      1       1     0 -0.558  1.75      0
#> 3      0        1      0       1     0 -0.402  0.280     0
#> 4      0        1      1       2     1 -0.956 -0.602     0
#> 5      0        1      0       1     0  0.437  0.528     1
#> 6      0        1      1       4     2  1.39  -0.708     0
#> # ... with 244 more rows
…
