…
b_Intercept annab ennustuse sex = 0 keskmisele testitulemusele üle kõikide koolide ja b_sex1
annab sex = 1 tulemuse. Kooli tasemele minnes tuleb teha tehted: 

b_Intercept + r_school[xxx,Intercept] ja 

b_sex1 + r_school[xxx,sex1], 

et saada sellele koolile ennustatud poiste ja tüdrukute skoor.

```r
broom::tidyMCMC(sch_m1$fit, conf.int = TRUE, conf.method = "HPDinterval",
    rhat = TRUE)
#> # A tibble: 152 x 6
#>   term                        estimate std.error  conf.low conf.high  rhat
#>   <chr>                          <dbl>     <dbl>     <dbl>     <dbl> <dbl>
#> 1 b_Intercept                  49.2        0.993  47.3        51.1   1.00 
#> 2 b_sex1                       -2.50       0.663  -3.75       -1.16  1.000
#> 3 sd_school__Intercept          7.24       0.798   5.71        8.75  1.00 
#> 4 sd_school__sex1               1.53       1.01    0.00555     3.36  1.00 
#> 5 cor_school__Intercept__sex1  -0.0924     0.315  -0.651       0.570 1.000
#> 6 sigma                        11.2        0.208  10.7        11.6   0.999
#> # ... with 146 more rows
```
…
