Bayesi statistika kasutades R keelt
…
score1~score2:sex

lm(score1~score2:sex, data = schools) %>% tidy()
#> # A tibble: 3 x 5
#>   term        estimate std.error statistic   p.value
#>   <chr>          <dbl>     <dbl>     <dbl>     <dbl>
#> 1 (Intercept)   16.1      1.37        11.7 2.72e- 30
#> 2 score2:sex0    0.460    0.0197      23.4 2.62e-103
#> 3 score2:sex1    0.386    0.0180      21.4 5.80e- 89

score1~sex*school

lm(score1~school:sex, data = schools) %>% tidy()
#> # A tibble: 143 x 5
#>   term             estimate std.error statistic  p.value
#>   <chr>               <dbl>     <dbl>     <dbl>    <dbl>
#> 1 (Intercept)        60.8        3.70   16.4    1.95e-55
#> 2 school20920:sex0  -40.3        8.68   -4.64   3.85e- 6
#> 3 school22520:sex0  -26.4        4.46   -5.93   3.92e- 9
#> 4 school22710:sex0  -23.9        5.86   -4.09   4.57e- 5
#> 5 school22738:sex0   -5.98       6.20   -0.965  3.35e- 1
#> 6 school22908:sex0    0.222     11.7     0.0190 9.85e- 1
#> # ... with 137 more rows
…
sch_m1 <- read_rds("sch_m1.fit")

b_Intercept annab ennustuse sex = 0 keskmisele testitulemusele üle kõikide koolide ja b_sex1 annab sex = 1 tulemuse. Kooli tasemele minnes tuleb teha tehted:

b_Intercept + r_school[xxx,Intercept] ja

b_sex1 + r_school[xxx,sex1],

et saada sellele koolile ennustatud poiste ja tüdrukute skoor.

broom::tidyMCMC(sch_m1$fit, conf.int = TRUE, conf.method = "HPDinterval",
    rhat = TRUE)
#> # A tibble: 152 x 6
#>   term                        estimate std.error  conf.low conf.high  rhat
#>   <chr>                          <dbl>     <dbl>     <dbl>     <dbl> <dbl>
#> 1 b_Intercept                  49.2        0.993  47.3        51.1   1.00 
#> 2 b_sex1                       -2.50       0.663  -3.75       -1.16  1.000
#> 3 sd_school__Intercept          7.24       0.798   5.71        8.75  1.00 
#> 4 sd_school__sex1               1.53       1.01    0.00555     3.36  1.00 
#> 5 cor_school__Intercept__sex1  -0.0924     0.315  -0.651       0.570 1.000
#> 6 sigma                        11.2        0.208  10.7        11.6   0.999
#> # ... with 146 more rows
…
