6 Vähimruutude meetodiga fititud mudelite töövoog – lm() | Bayesi statistika kasutades R keelt
…
Adjusteeritud r2 tasub eraldi üle vaadata.

summary(m3)$adj.r.squared
#> [1] 0.61

0.61 tähendab, et mudel suudab seletada mitte rohkem kui 61% y-muutuja (Sepal.Width) varieeruvusest.

2. Testime mudeli eeldusi

Nii saab fititud väärtused (.fitted), residuaalid (.resid), fittitud väätruste standardvead (.se.fit). Residuaal = Y data value - fitted value. Seega positiivne residuaal näitab, et mudeli ennustus keskmisele y väärtusele mingil x-muutujate väärtusel on madalam kui juhutb olema tegelik y-i andmepunkti väärtus. See võib olla tingitud y-muutuja normaalsest bioloogilisest varieeruvusest, aga ka sellest, et mudel ei kirjelda täiuslikult x-ide ja y tegelikku seost.

(a_m3 <- augment(m3))
#> # A tibble: 150 x 10
#>   Sepal.Width Sepal.Length Species .fitted .se.fit   .resid   .hat .sigma
#> *       <dbl>        <dbl> <fct>     <dbl>   <dbl>    <dbl>  <dbl>  <dbl>
#> 1         3.5          5.1 setosa     3.50  0.0399 -0.00306 0.0215  0.273
#> 2         3            4.9 setosa     3.34  0.0403 -0.343   0.0218  0.272
#> 3         3.2          4.7 setosa     3.18  0.0512  0.0163  0.0354  0.273
#> 4         3.1          4.6 setosa     3.10  0.0591 -0.00380 0.0471  0.273
#> 5         3.6          5   setosa     3.42  0.0385  0.177   0.0200  0.273
#> 6         3.9          5.4 setosa     3.74  0.0581  0.157   0.0455  0.273
#> # ... with 144 more rows, and 2 more variables: .cooksd <dbl>,
#> #   .std.resid <dbl>
…
